{
  "status": 0,
  "msg": "ok",
  "data": {
    "list": [
      {
        "id": "3484",
        "expenseType": "7",
        "expenseTypeValue": "\u53a8\u623f\u6bcf\u65e5\u91c7\u8d2d\u7533\u8bf7",
        "applyTime": 1456921270,
        "operatorTime": 1457940582,
        "expenseSn": "160302LGq0d00002",
        "amountTotal": "641.36",
        "preUserName": "\u5218\u78ca",
        "nextUserName": "\u5218\u78ca",
        "expenseName": "\u5218\u78ca",
        "expenseRejectReason": "",
        "departmentName": "\u91c7\u8d2d\u90e8",
        "supplierName": "",
        "payee": "",
        "expenseStep": "\u5df2\u7ec8\u6b62",
        "materialTypeContent": null,
        "dgName": null,
        "shopName": "\u5317\u4eac\u53a8\u54c1\u79c0\u7f51\u7edc\u79d1\u6280\u6709\u9650\u516c\u53f8\uff08\u603b\u90e8\uff09",
        "sn": 1,
        "year": "2016",
        "date": "03-02 20:21"
      },
      {
        "id": "3483",
        "expenseType": "7",
        "expenseTypeValue": "\u53a8\u623f\u6bcf\u65e5\u91c7\u8d2d\u7533\u8bf7",
        "applyTime": 1456109915,
        "operatorTime": 1457940430,
        "expenseSn": "160222hEa7100002",
        "amountTotal": "12130.00",
        "preUserName": "\u5218\u78ca",
        "nextUserName": "\u5218\u78ca",
        "expenseName": "\u5218\u78ca",
        "expenseRejectReason": "",
        "departmentName": "\u91c7\u8d2d\u90e8",
        "supplierName": "",
        "payee": "",
        "expenseStep": "\u5df2\u7ec8\u6b62",
        "materialTypeContent": null,
        "dgName": null,
        "shopName": "\u5317\u4eac\u53a8\u54c1\u79c0\u7f51\u7edc\u79d1\u6280\u6709\u9650\u516c\u53f8\uff08\u603b\u90e8\uff09",
        "sn": 2,
        "year": "2016",
        "date": "02-22 10:58"
      },
      {
        "id": "3481",
        "expenseType": "7",
        "expenseTypeValue": "\u53a8\u623f\u6bcf\u65e5\u91c7\u8d2d\u7533\u8bf7",
        "applyTime": 1456798764,
        "operatorTime": 1457940430,
        "expenseSn": "160301bdpOi00002",
        "amountTotal": "0.00",
        "preUserName": "\u5218\u78ca",
        "nextUserName": "\u5218\u78ca",
        "expenseName": "\u5218\u78ca",
        "expenseRejectReason": "",
        "departmentName": "\u91c7\u8d2d\u90e8",
        "supplierName": "",
        "payee": "",
        "expenseStep": "\u5df2\u7ec8\u6b62",
        "materialTypeContent": null,
        "dgName": null,
        "shopName": "\u5317\u4eac\u53a8\u54c1\u79c0\u7f51\u7edc\u79d1\u6280\u6709\u9650\u516c\u53f8\uff08\u603b\u90e8\uff09",
        "sn": 3,
        "year": "2016",
        "date": "03-01 10:19"
      },
      {
        "id": "3166",
        "expenseType": "1",
        "expenseTypeValue": "\u91c7\u8d2d\u8d39\u7528",
        "applyTime": 1457408213,
        "operatorTime": 1457408213,
        "expenseSn": "160308a6MY900002",
        "amountTotal": "55.00",
        "preUserName": "\u5218\u78ca",
        "nextUserName": "\u5218\u78ca",
        "expenseName": "\u5218\u78ca",
        "expenseRejectReason": "",
        "departmentName": null,
        "supplierName": "",
        "payee": "",
        "expenseStep": "\u5ba1\u6838\u4e2d",
        "materialTypeContent": null,
        "dgName": null,
        "shopName": "\u5317\u4eac\u53a8\u54c1\u79c0\u7f51\u7edc\u79d1\u6280\u6709\u9650\u516c\u53f8\uff08\u603b\u90e8\uff09",
        "sn": 4,
        "year": "2016",
        "date": "03-08 11:36"
      },
      {
        "id": "3121",
        "expenseType": "1",
        "expenseTypeValue": "\u91c7\u8d2d\u8d39\u7528",
        "applyTime": 1457403652,
        "operatorTime": 1457403652,
        "expenseSn": "160308IZkB500002",
        "amountTotal": "21.30",
        "preUserName": "\u5218\u78ca",
        "nextUserName": "\u6587\u6b63",
        "expenseName": "\u5218\u78ca",
        "expenseRejectReason": "",
        "departmentName": null,
        "supplierName": "",
        "payee": "",
        "expenseStep": "\u5ba1\u6838\u4e2d",
        "materialTypeContent": null,
        "dgName": null,
        "shopName": "\u5317\u4eac\u53a8\u54c1\u79c0\u7f51\u7edc\u79d1\u6280\u6709\u9650\u516c\u53f8\uff08\u603b\u90e8\uff09",
        "sn": 5,
        "year": "2016",
        "date": "03-08 10:20"
      },
      {
        "id": "1309",
        "expenseType": "22",
        "expenseTypeValue": "\u80fd\u6e90\u8d39\u7528",
        "applyTime": 1456732983,
        "operatorTime": 1456732999,
        "expenseSn": "160229dm86D00002",
        "amountTotal": "1.00",
        "preUserName": "\u5218\u78ca",
        "nextUserName": "\u5218\u78ca",
        "expenseName": "\u5218\u78ca",
        "expenseRejectReason": "",
        "departmentName": null,
        "supplierName": "",
        "payee": "",
        "expenseStep": "\u5904\u7406\u4e2d",
        "materialTypeContent": null,
        "dgName": null,
        "shopName": "\u5317\u4eac\u53a8\u54c1\u79c0\u7f51\u7edc\u79d1\u6280\u6709\u9650\u516c\u53f8\uff08\u603b\u90e8\uff09",
        "sn": 6,
        "year": "2016",
        "date": "02-29 16:03"
      },
      {
        "id": "587",
        "expenseType": "1",
        "expenseTypeValue": "\u91c7\u8d2d\u8d39\u7528",
        "applyTime": 1455780905,
        "operatorTime": 1455780905,
        "expenseSn": "160218di2Rn00002",
        "amountTotal": "189.00",
        "preUserName": "\u5218\u78ca",
        "nextUserName": "\u5218\u78ca",
        "expenseName": "\u5218\u78ca",
        "expenseRejectReason": "",
        "departmentName": null,
        "supplierName": "",
        "payee": "",
        "expenseStep": "\u5ba1\u6838\u4e2d",
        "materialTypeContent": null,
        "dgName": null,
        "shopName": "\u5317\u4eac\u53a8\u54c1\u79c0\u7f51\u7edc\u79d1\u6280\u6709\u9650\u516c\u53f8\uff08\u603b\u90e8\uff09",
        "sn": 7,
        "year": "2016",
        "date": "02-18 15:35"
      },
      {
        "id": "519",
        "expenseType": "22",
        "expenseTypeValue": "\u80fd\u6e90\u8d39\u7528",
        "applyTime": 1455681793,
        "operatorTime": 1455681793,
        "expenseSn": "1602175FaSI00002",
        "amountTotal": "55.00",
        "preUserName": "\u5218\u78ca",
        "nextUserName": "\u5218\u78ca",
        "expenseName": "\u5218\u78ca",
        "expenseRejectReason": "",
        "departmentName": null,
        "supplierName": "",
        "payee": "",
        "expenseStep": "\u5ba1\u6838\u4e2d",
        "materialTypeContent": null,
        "dgName": null,
        "shopName": "\u5317\u4eac\u53a8\u54c1\u79c0\u7f51\u7edc\u79d1\u6280\u6709\u9650\u516c\u53f8\uff08\u603b\u90e8\uff09",
        "sn": 8,
        "year": "2016",
        "date": "02-17 12:03"
      },
      {
        "id": "517",
        "expenseType": "1",
        "expenseTypeValue": "\u91c7\u8d2d\u8d39\u7528",
        "applyTime": 1455681528,
        "operatorTime": 1455681528,
        "expenseSn": "1602177UjCH00002",
        "amountTotal": "555.00",
        "preUserName": "\u5218\u78ca",
        "nextUserName": "\u5218\u78ca",
        "expenseName": "\u5218\u78ca",
        "expenseRejectReason": "",
        "departmentName": null,
        "supplierName": "",
        "payee": "",
        "expenseStep": "\u5ba1\u6838\u4e2d",
        "materialTypeContent": null,
        "dgName": null,
        "shopName": "\u5317\u4eac\u53a8\u54c1\u79c0\u7f51\u7edc\u79d1\u6280\u6709\u9650\u516c\u53f8\uff08\u603b\u90e8\uff09",
        "sn": 9,
        "year": "2016",
        "date": "02-17 11:58"
      },
      {
        "id": "514",
        "expenseType": "21",
        "expenseTypeValue": "\u8d22\u52a1\u8d39\u7528",
        "applyTime": 1455681269,
        "operatorTime": 1455681269,
        "expenseSn": "1602177ZLn600002",
        "amountTotal": "22.00",
        "preUserName": "\u5218\u78ca",
        "nextUserName": "\u5218\u78ca",
        "expenseName": "\u5218\u78ca",
        "expenseRejectReason": "",
        "departmentName": null,
        "supplierName": "",
        "payee": "",
        "expenseStep": "\u5ba1\u6838\u4e2d",
        "materialTypeContent": null,
        "dgName": null,
        "shopName": "\u5317\u4eac\u53a8\u54c1\u79c0\u7f51\u7edc\u79d1\u6280\u6709\u9650\u516c\u53f8\uff08\u603b\u90e8\uff09",
        "sn": 10,
        "year": "2016",
        "date": "02-17 11:54"
      },
      {
        "id": "512",
        "expenseType": "21",
        "expenseTypeValue": "\u8d22\u52a1\u8d39\u7528",
        "applyTime": 1455679175,
        "operatorTime": 1455679175,
        "expenseSn": "160217bAIHx00002",
        "amountTotal": "25.00",
        "preUserName": "\u5218\u78ca",
        "nextUserName": "\u5218\u78ca",
        "expenseName": "\u5218\u78ca",
        "expenseRejectReason": "",
        "departmentName": null,
        "supplierName": "",
        "payee": "",
        "expenseStep": "\u5ba1\u6838\u4e2d",
        "materialTypeContent": null,
        "dgName": null,
        "shopName": "\u5317\u4eac\u53a8\u54c1\u79c0\u7f51\u7edc\u79d1\u6280\u6709\u9650\u516c\u53f8\uff08\u603b\u90e8\uff09",
        "sn": 11,
        "year": "2016",
        "date": "02-17 11:19"
      }
    ],
    "currentPage": 1,
    "totalPages": 2,
    "Total": 40
  }
}